%YAML 1.1
%TAG !u! tag:unity3d.com,2011:
--- !u!1045 &1
EditorBuildSettings:
  m_ObjectHideFlags: 0
  serializedVersion: 2
  m_Scenes:
  - enabled: 0
    path: Assets/Mirror/Examples/Pong/Scenes/Scene.unity
    guid: 89a84548859e3b643b4fb27984dc2b0d
  - enabled: 1
    path: Assets/Mirror/Examples/Basic/Scenes/Example.unity
    guid: b30904751905d3f4dacde62ac85ec7c2
  m_configObjects: {}
